Column,name in ER,description
A_AGE1,groupID,
A_AGE2,groupID,
A_AGE3,groupID,
A_AGE4,groupID,
A_AGE5,groupID,
A_AGE6,groupID,
A_AGE7,groupID,
A_AGE8,groupID,
A_AGE9,groupID,
ST_CASE,accidentID,
VEH_NO,vehicleID,
PER_NO,personID,
YEAR,crashDateTime: dateTime,
A_PTYPE,role,
A_REST,isProtected,
A_ALCTES,isDriverDrunk,Alcohol Testing
A_HISP,race,Hispanic Origin
A_RCAT,race,Race - Using OMB Guidelines
A_HRACE,race,Race and Hispanic - Using OMB Guidelines
A_EJECT,ejection,ejection
A_PERINJ,jnjuryType,
A_LOC,,Non-Motorist Location
